27 51
54 62
81 93
108 248
135 310
162 558
189 651
216 992
243 1116
270 1550
297 1705
324 2232
351 2418
378 3038
405 3255
432 3968
459 4216
486 5022
513 5301
540 6200
567 6510
594 7502
621 7843
648 8928
675 9300
702 10478
729 10881
756 12152
783 12586
810 13950
837 14415
864 15872
891 16368
918 17918
945 18445
972 20088
999 20646
1026 22382
1053 22971
1080 24800
1107 25420
1134 27342
1161 27993
1188 30008
1215 30690
1242 32798
1269 33511
1296 35712
1323 36456
1350 38750
1377 39525
1404 41912
1431 42718
1458 45198
1485 46035
1512 48608
1539 49476
1566 52142
1593 53041
1620 55800
1647 56730
1674 59582
1701 60543
1728 63488
1755 64480
1782 67518
1809 68541
1836 71672
1863 72726
1890 75950
1917 77035
1944 80352
1971 81468
1998 84878
2025 86025
2052 89528
2079 90706
2106 94302
2133 95511
2160 99200
2187 100440
2214 104222
2241 105493
2268 109368
2295 110670
2322 114638
2349 115971
2376 120032
2403 121396
2430 125550
2457 126945
2484 131192
2511 132618
2538 136958
2565 138415
2592 142848
2619 144336
2646 148862
2673 150381
2700 155000
2727 156550
2754 161262
2781 162843
2808 167648
2835 169260
2862 174158
2889 175801
2916 180792
2943 182466
2970 187550
2997 189255
3024 194432
3051 196168
3078 201438
3105 203205
3132 208568
3159 210366
3186 215822
3213 217651
3240 223200
3267 225060
3294 230702
3321 232593
3348 238328
3375 240250
3402 246078
3429 248031
3456 253952
3483 255936
3510 261950
3537 263965
3564 270072
3591 272118
3618 278318
3645 280395
3672 286688
3699 288796
3726 295182
3753 297321
3780 303800
3807 305970
3834 312542
3861 314743
3888 321408
3915 323640
3942 330398
3969 332661
3996 339512
4023 341806
4050 348750
4077 351075
4104 358112
4131 360468
4158 367598
4185 369985
4212 377208
4239 379626
4266 386942
4293 389391
4320 396800
4347 399280
4374 406782
4401 409293
4428 416888
4455 419430
4482 427118
4509 429691
4536 437472
4563 440076
4590 447950
4617 450585
4644 458552
4671 461218
4698 469278
4725 471975
4752 480128
4779 482856
4806 491102
4833 493861
4860 502200
4887 504990
4914 513422
4941 516243
4968 524768
4995 527620
5022 536238
5049 539121
5076 547832
5103 550746
5130 559550
5157 562495
5184 571392
5211 574368
5238 583358
5265 586365
5292 595448
5319 598486
5346 607662
5373 610731
5400 620000
5427 623100
5454 632462
5481 635593
5508 645048
5535 648210
5562 657758
5589 660951
5616 670592
5643 673816
5670 683550
5697 686805
5724 696632
5751 699918
5778 709838
5805 713155
5832 723168
5859 726516
5886 736622
5913 740001
5940 750200
5967 753610
5994 763902
6021 767343
6048 777728
6075 781200
6102 791678
6129 795181
6156 805752
6183 809286
6210 819950
6237 823515
6264 834272
6291 837868
6318 848718
6345 852345
6372 863288
6399 866946
6426 877982
6453 881671
6480 892800
6507 896520
6534 907742
6561 911493
6588 922808
6615 926590
6642 937998
6669 941811
6696 953312
6723 957156
6750 968750
